{
    "id"      : "com.reltio.plugins.relationships",
    "name"    : "Relationships Perspective",
    "version" : "1.0.0",
    "provider-name" : "Reltio.com",
    "requirements"  : ["com.reltio.plugins.entity"],
    "extensions"    : [
        {
            "point"    : "com.reltio.plugins.ui.action",
            "id"       : "com.reltio.plugins.RelationshipsAction",
            "class"    : "com.reltio.plugins.ui.actions.Action",
            "icon"     : "com/reltio/icons/side-panel/icon-relations.png",
            "type"     : "com.reltio.plugins.ui.side_action",
            "parent"   : "com.reltio.plugins.EntityAction",
            "label"    : "Relationships",
            "position" : 2,
            "perspective"  : "com.reltio.plugins.entity.RelationshipsPerspective",
            "selectedIcon" : "com/reltio/icons/side-panel/icon-relations-sel.png",
            "entity-types" : ["configuration/entityTypes/HCP", "configuration/entityTypes/HCO", "configuration/entityTypes/ACO"]
        },
        {
            "point"    : "com.reltio.plugins.ui.view",
            "id"       : "com.reltio.plugins.relationships.Relationships",
            "class"    : "com.reltio.plugins.relationships.RelationshipsView"
        },
        {
            "point"       : "com.reltio.plugins.ui.perspective",
            "id"          : "com.reltio.plugins.entity.RelationshipsPerspective",
            "class"       : "com.reltio.plugins.ui.Perspective",
            "header"      : "com.reltio.plugins.entity.EntityHeader",
            "layout" :
            {
                "layout" : "scroll",
                "items"  : [
                    {"view" : "com.reltio.plugins.relationships.Relationships", "margin": [2, 7, 14, 0]}
                ]
            }
        }
    ]
}