{
   "id": "com.reltio.plugins.product",
   "name": "Product Perspective",
   "version": "1.0.0",
   "provider-name": "Reltio.com",
   "requirements": [
      "com.reltio.plugins.entity"
   ],
   "extensions": [
      
      {
         "point": "com.reltio.plugins.ui.perspective",
         "id": "com.reltio.plugins.entity.product.ProductPerspective",
         "class": "com.reltio.plugins.ui.Perspective",
         "entity-type": "configuration/entityTypes/Product",
         "maxWidth": 1260,
         "header": "com.reltio.plugins.entity.EntityHeader",
         "side": "com.reltio.plugins.entity.EntitySidePanel",
         "layout": {
            "layout": "scroll",
            "items": [
               {
                  "layout": "hbox",
                  "padding": [0, 10, 0, 0],
                  "items": [
                     {
                        "width": "66.6%",
                        "layout": "vbox",
                        "items": [
                           {
                              "view": "com.reltio.plugins.workflow.tasks.ReviewEntityWorkflowTasksContainer",
                              "margin": [2, 7, 14, 0]
                           },
                           {
                              "view": "com.reltio.plugins.entity.PersonView",
                              "margin": [2, 7, 14, 0]
                           }
                        ]
                     },
                     {
                        "width": "33.3%",
                        "layout": "vbox",
                        "items": [
                           {
                              "view": "com.reltio.plugins.entity.PotentialMatchesView",
                              "margin": [2, 0, 12, 7]
                           }
                        ]
                     }
                  ]
               }
            ]
         }
      },
      {
         "point": "com.reltio.plugins.ui.preview.perspective",
         "id": "com.reltio.plugins.entity.product.preview.ProductPerspective",
         "class": "com.reltio.plugins.ui.Perspective",
         "entity-type": "configuration/entityTypes/Product",
         "maxWidth": 1260,
         "header": "com.reltio.plugins.entity.EntityHeader",
         "layout": {
            "layout": "scroll",
            "items": [
               {
                  "view": "com.reltio.plugins.entity.PersonView",
                  "margin": [0, 4, 4, 4],
                  "width": "100%"
               }
            ]
         }
      }
   ]
}