[
  {
    "tenantId": "{{rdmTenant}}",
    "type": "rdm/lookupTypes/App-Account360IndustryCode",
    "code": "96519901",
    "enabled": true,
    "sourceMappings": [
        {
            "source": "Reltio",
            "values": [
                {
                    "code": "96519901",
                    "value": "Alcoholic beverage control board, government",
                    "enabled": true,
                    "canonicalValue": true,
                    "downStreamDefaultValue": true
                }
            ]
        },
        {
            "source": "ReltioRDM",
            "values": [
                {
                    "code": "96519901",
                    "value": "Alcoholic beverage control board, government",
                    "enabled": true,
                    "canonicalValue": false,
                    "downStreamDefaultValue": true
                }
            ]
        }
    ],
    "localizations": [],
    "parents": [
    "rdm/lookupTypes/App-Account360IndustryType/SIC 1",
    "rdm/lookupTypes/App-Account360IndustryType/SIC 2",
    "rdm/lookupTypes/App-Account360IndustryType/SIC 3",
    "rdm/lookupTypes/App-Account360IndustryType/SIC 4",
    "rdm/lookupTypes/App-Account360IndustryType/SIC 5",
    "rdm/lookupTypes/App-Account360IndustryType/SIC 6",
    "rdm/lookupTypes/App-Account360IndustryType/US Standard Industry Code 1987 - 4 digit",
    "rdm/lookupTypes/App-Account360IndustryType/US SIC (1987)",
    "rdm/lookupTypes/App-Account360IndustryType/US Standard Industry Code 1972 - 4 digit",
    "rdm/lookupTypes/App-Account360IndustryType/US SIC (1972)",
    "rdm/lookupTypes/App-Account360IndustryType/US Standard Industry Code 1972 - 4 digit (European version)",
    "rdm/lookupTypes/App-Account360IndustryType/US Standard Industry Code 1987 - 3 digit",
    "rdm/lookupTypes/App-Account360IndustryType/US SIC (1987) - 3 digit",
    "rdm/lookupTypes/App-Account360IndustryType/US Standard Industry Code 1987 - 2 digit"
	],
    "startDate": 0,
    "endDate": 0
  },
  {
    "tenantId": "{{rdmTenant}}",
    "type": "rdm/lookupTypes/App-Account360IndustryCode",
    "code": "96519902",
    "enabled": true,
    "sourceMappings": [
        {
            "source": "Reltio",
            "values": [
                {
                    "code": "96519902",
                    "value": "Bureaus of standards, government",
                    "enabled": true,
                    "canonicalValue": true,
                    "downStreamDefaultValue": true
                }
            ]
        },
        {
            "source": "ReltioRDM",
            "values": [
                {
                    "code": "96519902",
                    "value": "Bureaus of standards, government",
                    "enabled": true,
                    "canonicalValue": false,
                    "downStreamDefaultValue": true
                }
            ]
        }
    ],
    "localizations": [],
    "parents": [
    "rdm/lookupTypes/App-Account360IndustryType/SIC 1",
    "rdm/lookupTypes/App-Account360IndustryType/SIC 2",
    "rdm/lookupTypes/App-Account360IndustryType/SIC 3",
    "rdm/lookupTypes/App-Account360IndustryType/SIC 4",
    "rdm/lookupTypes/App-Account360IndustryType/SIC 5",
    "rdm/lookupTypes/App-Account360IndustryType/SIC 6",
    "rdm/lookupTypes/App-Account360IndustryType/US Standard Industry Code 1987 - 4 digit",
    "rdm/lookupTypes/App-Account360IndustryType/US SIC (1987)",
    "rdm/lookupTypes/App-Account360IndustryType/US Standard Industry Code 1972 - 4 digit",
    "rdm/lookupTypes/App-Account360IndustryType/US SIC (1972)",
    "rdm/lookupTypes/App-Account360IndustryType/US Standard Industry Code 1972 - 4 digit (European version)",
    "rdm/lookupTypes/App-Account360IndustryType/US Standard Industry Code 1987 - 3 digit",
    "rdm/lookupTypes/App-Account360IndustryType/US SIC (1987) - 3 digit",
    "rdm/lookupTypes/App-Account360IndustryType/US Standard Industry Code 1987 - 2 digit"
	],
    "startDate": 0,
    "endDate": 0
  },
  {
    "tenantId": "{{rdmTenant}}",
    "type": "rdm/lookupTypes/App-Account360IndustryCode",
    "code": "96519903",
    "enabled": true,
    "sourceMappings": [
        {
            "source": "Reltio",
            "values": [
                {
                    "code": "96519903",
                    "value": "Licensing and permits for professional occupations, govt.",
                    "enabled": true,
                    "canonicalValue": true,
                    "downStreamDefaultValue": true
                }
            ]
        },
        {
            "source": "ReltioRDM",
            "values": [
                {
                    "code": "96519903",
                    "value": "Licensing and permits for professional occupations, govt.",
                    "enabled": true,
                    "canonicalValue": false,
                    "downStreamDefaultValue": true
                }
            ]
        }
    ],
    "localizations": [],
    "parents": [
    "rdm/lookupTypes/App-Account360IndustryType/SIC 1",
    "rdm/lookupTypes/App-Account360IndustryType/SIC 2",
    "rdm/lookupTypes/App-Account360IndustryType/SIC 3",
    "rdm/lookupTypes/App-Account360IndustryType/SIC 4",
    "rdm/lookupTypes/App-Account360IndustryType/SIC 5",
    "rdm/lookupTypes/App-Account360IndustryType/SIC 6",
    "rdm/lookupTypes/App-Account360IndustryType/US Standard Industry Code 1987 - 4 digit",
    "rdm/lookupTypes/App-Account360IndustryType/US SIC (1987)",
    "rdm/lookupTypes/App-Account360IndustryType/US Standard Industry Code 1972 - 4 digit",
    "rdm/lookupTypes/App-Account360IndustryType/US SIC (1972)",
    "rdm/lookupTypes/App-Account360IndustryType/US Standard Industry Code 1972 - 4 digit (European version)",
    "rdm/lookupTypes/App-Account360IndustryType/US Standard Industry Code 1987 - 3 digit",
    "rdm/lookupTypes/App-Account360IndustryType/US SIC (1987) - 3 digit",
    "rdm/lookupTypes/App-Account360IndustryType/US Standard Industry Code 1987 - 2 digit"
	],
    "startDate": 0,
    "endDate": 0
  },
  {
    "tenantId": "{{rdmTenant}}",
    "type": "rdm/lookupTypes/App-Account360IndustryCode",
    "code": "96519904",
    "enabled": true,
    "sourceMappings": [
        {
            "source": "Reltio",
            "values": [
                {
                    "code": "96519904",
                    "value": "Licensing and permits for retail trade, government",
                    "enabled": true,
                    "canonicalValue": true,
                    "downStreamDefaultValue": true
                }
            ]
        },
        {
            "source": "ReltioRDM",
            "values": [
                {
                    "code": "96519904",
                    "value": "Licensing and permits for retail trade, government",
                    "enabled": true,
                    "canonicalValue": false,
                    "downStreamDefaultValue": true
                }
            ]
        }
    ],
    "localizations": [],
    "parents": [
    "rdm/lookupTypes/App-Account360IndustryType/SIC 1",
    "rdm/lookupTypes/App-Account360IndustryType/SIC 2",
    "rdm/lookupTypes/App-Account360IndustryType/SIC 3",
    "rdm/lookupTypes/App-Account360IndustryType/SIC 4",
    "rdm/lookupTypes/App-Account360IndustryType/SIC 5",
    "rdm/lookupTypes/App-Account360IndustryType/SIC 6",
    "rdm/lookupTypes/App-Account360IndustryType/US Standard Industry Code 1987 - 4 digit",
    "rdm/lookupTypes/App-Account360IndustryType/US SIC (1987)",
    "rdm/lookupTypes/App-Account360IndustryType/US Standard Industry Code 1972 - 4 digit",
    "rdm/lookupTypes/App-Account360IndustryType/US SIC (1972)",
    "rdm/lookupTypes/App-Account360IndustryType/US Standard Industry Code 1972 - 4 digit (European version)",
    "rdm/lookupTypes/App-Account360IndustryType/US Standard Industry Code 1987 - 3 digit",
    "rdm/lookupTypes/App-Account360IndustryType/US SIC (1987) - 3 digit",
    "rdm/lookupTypes/App-Account360IndustryType/US Standard Industry Code 1987 - 2 digit"
	],
    "startDate": 0,
    "endDate": 0
  },
  {
    "tenantId": "{{rdmTenant}}",
    "type": "rdm/lookupTypes/App-Account360IndustryCode",
    "code": "96519905",
    "enabled": true,
    "sourceMappings": [
        {
            "source": "Reltio",
            "values": [
                {
                    "code": "96519905",
                    "value": "Price control agency, government",
                    "enabled": true,
                    "canonicalValue": true,
                    "downStreamDefaultValue": true
                }
            ]
        },
        {
            "source": "ReltioRDM",
            "values": [
                {
                    "code": "96519905",
                    "value": "Price control agency, government",
                    "enabled": true,
                    "canonicalValue": false,
                    "downStreamDefaultValue": true
                }
            ]
        }
    ],
    "localizations": [],
    "parents": [
    "rdm/lookupTypes/App-Account360IndustryType/SIC 1",
    "rdm/lookupTypes/App-Account360IndustryType/SIC 2",
    "rdm/lookupTypes/App-Account360IndustryType/SIC 3",
    "rdm/lookupTypes/App-Account360IndustryType/SIC 4",
    "rdm/lookupTypes/App-Account360IndustryType/SIC 5",
    "rdm/lookupTypes/App-Account360IndustryType/SIC 6",
    "rdm/lookupTypes/App-Account360IndustryType/US Standard Industry Code 1987 - 4 digit",
    "rdm/lookupTypes/App-Account360IndustryType/US SIC (1987)",
    "rdm/lookupTypes/App-Account360IndustryType/US Standard Industry Code 1972 - 4 digit",
    "rdm/lookupTypes/App-Account360IndustryType/US SIC (1972)",
    "rdm/lookupTypes/App-Account360IndustryType/US Standard Industry Code 1972 - 4 digit (European version)",
    "rdm/lookupTypes/App-Account360IndustryType/US Standard Industry Code 1987 - 3 digit",
    "rdm/lookupTypes/App-Account360IndustryType/US SIC (1987) - 3 digit",
    "rdm/lookupTypes/App-Account360IndustryType/US Standard Industry Code 1987 - 2 digit"
	],
    "startDate": 0,
    "endDate": 0
  },
  {
    "tenantId": "{{rdmTenant}}",
    "type": "rdm/lookupTypes/App-Account360IndustryCode",
    "code": "96519906",
    "enabled": true,
    "sourceMappings": [
        {
            "source": "Reltio",
            "values": [
                {
                    "code": "96519906",
                    "value": "Rent control agency, government",
                    "enabled": true,
                    "canonicalValue": true,
                    "downStreamDefaultValue": true
                }
            ]
        },
        {
            "source": "ReltioRDM",
            "values": [
                {
                    "code": "96519906",
                    "value": "Rent control agency, government",
                    "enabled": true,
                    "canonicalValue": false,
                    "downStreamDefaultValue": true
                }
            ]
        }
    ],
    "localizations": [],
    "parents": [
    "rdm/lookupTypes/App-Account360IndustryType/SIC 1",
    "rdm/lookupTypes/App-Account360IndustryType/SIC 2",
    "rdm/lookupTypes/App-Account360IndustryType/SIC 3",
    "rdm/lookupTypes/App-Account360IndustryType/SIC 4",
    "rdm/lookupTypes/App-Account360IndustryType/SIC 5",
    "rdm/lookupTypes/App-Account360IndustryType/SIC 6",
    "rdm/lookupTypes/App-Account360IndustryType/US Standard Industry Code 1987 - 4 digit",
    "rdm/lookupTypes/App-Account360IndustryType/US SIC (1987)",
    "rdm/lookupTypes/App-Account360IndustryType/US Standard Industry Code 1972 - 4 digit",
    "rdm/lookupTypes/App-Account360IndustryType/US SIC (1972)",
    "rdm/lookupTypes/App-Account360IndustryType/US Standard Industry Code 1972 - 4 digit (European version)",
    "rdm/lookupTypes/App-Account360IndustryType/US Standard Industry Code 1987 - 3 digit",
    "rdm/lookupTypes/App-Account360IndustryType/US SIC (1987) - 3 digit",
    "rdm/lookupTypes/App-Account360IndustryType/US Standard Industry Code 1987 - 2 digit"
	],
    "startDate": 0,
    "endDate": 0
  },
  {
    "tenantId": "{{rdmTenant}}",
    "type": "rdm/lookupTypes/App-Account360IndustryCode",
    "code": "96610000",
    "enabled": true,
    "sourceMappings": [
        {
            "source": "Reltio",
            "values": [
                {
                    "code": "96610000",
                    "value": "Space research and technology",
                    "enabled": true,
                    "canonicalValue": true,
                    "downStreamDefaultValue": true
                }
            ]
        },
        {
            "source": "ReltioRDM",
            "values": [
                {
                    "code": "96610000",
                    "value": "Space research and technology",
                    "enabled": true,
                    "canonicalValue": false,
                    "downStreamDefaultValue": true
                }
            ]
        }
    ],
    "localizations": [],
    "parents": [
    "rdm/lookupTypes/App-Account360IndustryType/SIC 1",
    "rdm/lookupTypes/App-Account360IndustryType/SIC 2",
    "rdm/lookupTypes/App-Account360IndustryType/SIC 3",
    "rdm/lookupTypes/App-Account360IndustryType/SIC 4",
    "rdm/lookupTypes/App-Account360IndustryType/SIC 5",
    "rdm/lookupTypes/App-Account360IndustryType/SIC 6",
    "rdm/lookupTypes/App-Account360IndustryType/US Standard Industry Code 1987 - 4 digit",
    "rdm/lookupTypes/App-Account360IndustryType/US SIC (1987)",
    "rdm/lookupTypes/App-Account360IndustryType/US Standard Industry Code 1972 - 4 digit",
    "rdm/lookupTypes/App-Account360IndustryType/US SIC (1972)",
    "rdm/lookupTypes/App-Account360IndustryType/US Standard Industry Code 1972 - 4 digit (European version)",
    "rdm/lookupTypes/App-Account360IndustryType/US Standard Industry Code 1987 - 3 digit",
    "rdm/lookupTypes/App-Account360IndustryType/US SIC (1987) - 3 digit",
    "rdm/lookupTypes/App-Account360IndustryType/US Standard Industry Code 1987 - 2 digit"
	],
    "startDate": 0,
    "endDate": 0
  },
  {
    "tenantId": "{{rdmTenant}}",
    "type": "rdm/lookupTypes/App-Account360IndustryCode",
    "code": "96610400",
    "enabled": true,
    "sourceMappings": [
        {
            "source": "Reltio",
            "values": [
                {
                    "code": "96610400",
                    "value": "Space research and technology, level of government",
                    "enabled": true,
                    "canonicalValue": true,
                    "downStreamDefaultValue": true
                }
            ]
        },
        {
            "source": "ReltioRDM",
            "values": [
                {
                    "code": "96610400",
                    "value": "Space research and technology, level of government",
                    "enabled": true,
                    "canonicalValue": false,
                    "downStreamDefaultValue": true
                }
            ]
        }
    ],
    "localizations": [],
    "parents": [
    "rdm/lookupTypes/App-Account360IndustryType/SIC 1",
    "rdm/lookupTypes/App-Account360IndustryType/SIC 2",
    "rdm/lookupTypes/App-Account360IndustryType/SIC 3",
    "rdm/lookupTypes/App-Account360IndustryType/SIC 4",
    "rdm/lookupTypes/App-Account360IndustryType/SIC 5",
    "rdm/lookupTypes/App-Account360IndustryType/SIC 6",
    "rdm/lookupTypes/App-Account360IndustryType/US Standard Industry Code 1987 - 4 digit",
    "rdm/lookupTypes/App-Account360IndustryType/US SIC (1987)",
    "rdm/lookupTypes/App-Account360IndustryType/US Standard Industry Code 1972 - 4 digit",
    "rdm/lookupTypes/App-Account360IndustryType/US SIC (1972)",
    "rdm/lookupTypes/App-Account360IndustryType/US Standard Industry Code 1972 - 4 digit (European version)",
    "rdm/lookupTypes/App-Account360IndustryType/US Standard Industry Code 1987 - 3 digit",
    "rdm/lookupTypes/App-Account360IndustryType/US SIC (1987) - 3 digit",
    "rdm/lookupTypes/App-Account360IndustryType/US Standard Industry Code 1987 - 2 digit"
	],
    "startDate": 0,
    "endDate": 0
  },
  {
    "tenantId": "{{rdmTenant}}",
    "type": "rdm/lookupTypes/App-Account360IndustryCode",
    "code": "96610401",
    "enabled": true,
    "sourceMappings": [
        {
            "source": "Reltio",
            "values": [
                {
                    "code": "96610401",
                    "value": "Space research and technology, Federal government",
                    "enabled": true,
                    "canonicalValue": true,
                    "downStreamDefaultValue": true
                }
            ]
        },
        {
            "source": "ReltioRDM",
            "values": [
                {
                    "code": "96610401",
                    "value": "Space research and technology, Federal government",
                    "enabled": true,
                    "canonicalValue": false,
                    "downStreamDefaultValue": true
                }
            ]
        }
    ],
    "localizations": [],
    "parents": [
    "rdm/lookupTypes/App-Account360IndustryType/SIC 1",
    "rdm/lookupTypes/App-Account360IndustryType/SIC 2",
    "rdm/lookupTypes/App-Account360IndustryType/SIC 3",
    "rdm/lookupTypes/App-Account360IndustryType/SIC 4",
    "rdm/lookupTypes/App-Account360IndustryType/SIC 5",
    "rdm/lookupTypes/App-Account360IndustryType/SIC 6",
    "rdm/lookupTypes/App-Account360IndustryType/US Standard Industry Code 1987 - 4 digit",
    "rdm/lookupTypes/App-Account360IndustryType/US SIC (1987)",
    "rdm/lookupTypes/App-Account360IndustryType/US Standard Industry Code 1972 - 4 digit",
    "rdm/lookupTypes/App-Account360IndustryType/US SIC (1972)",
    "rdm/lookupTypes/App-Account360IndustryType/US Standard Industry Code 1972 - 4 digit (European version)",
    "rdm/lookupTypes/App-Account360IndustryType/US Standard Industry Code 1987 - 3 digit",
    "rdm/lookupTypes/App-Account360IndustryType/US SIC (1987) - 3 digit",
    "rdm/lookupTypes/App-Account360IndustryType/US Standard Industry Code 1987 - 2 digit"
	],
    "startDate": 0,
    "endDate": 0
  },
  {
    "tenantId": "{{rdmTenant}}",
    "type": "rdm/lookupTypes/App-Account360IndustryCode",
    "code": "96610402",
    "enabled": true,
    "sourceMappings": [
        {
            "source": "Reltio",
            "values": [
                {
                    "code": "96610402",
                    "value": "Space research and technology, State government",
                    "enabled": true,
                    "canonicalValue": true,
                    "downStreamDefaultValue": true
                }
            ]
        },
        {
            "source": "ReltioRDM",
            "values": [
                {
                    "code": "96610402",
                    "value": "Space research and technology, State government",
                    "enabled": true,
                    "canonicalValue": false,
                    "downStreamDefaultValue": true
                }
            ]
        }
    ],
    "localizations": [],
    "parents": [
    "rdm/lookupTypes/App-Account360IndustryType/SIC 1",
    "rdm/lookupTypes/App-Account360IndustryType/SIC 2",
    "rdm/lookupTypes/App-Account360IndustryType/SIC 3",
    "rdm/lookupTypes/App-Account360IndustryType/SIC 4",
    "rdm/lookupTypes/App-Account360IndustryType/SIC 5",
    "rdm/lookupTypes/App-Account360IndustryType/SIC 6",
    "rdm/lookupTypes/App-Account360IndustryType/US Standard Industry Code 1987 - 4 digit",
    "rdm/lookupTypes/App-Account360IndustryType/US SIC (1987)",
    "rdm/lookupTypes/App-Account360IndustryType/US Standard Industry Code 1972 - 4 digit",
    "rdm/lookupTypes/App-Account360IndustryType/US SIC (1972)",
    "rdm/lookupTypes/App-Account360IndustryType/US Standard Industry Code 1972 - 4 digit (European version)",
    "rdm/lookupTypes/App-Account360IndustryType/US Standard Industry Code 1987 - 3 digit",
    "rdm/lookupTypes/App-Account360IndustryType/US SIC (1987) - 3 digit",
    "rdm/lookupTypes/App-Account360IndustryType/US Standard Industry Code 1987 - 2 digit"
	],
    "startDate": 0,
    "endDate": 0
  },
  {
    "tenantId": "{{rdmTenant}}",
    "type": "rdm/lookupTypes/App-Account360IndustryCode",
    "code": "96610403",
    "enabled": true,
    "sourceMappings": [
        {
            "source": "Reltio",
            "values": [
                {
                    "code": "96610403",
                    "value": "Space research and technology, County government",
                    "enabled": true,
                    "canonicalValue": true,
                    "downStreamDefaultValue": true
                }
            ]
        },
        {
            "source": "ReltioRDM",
            "values": [
                {
                    "code": "96610403",
                    "value": "Space research and technology, County government",
                    "enabled": true,
                    "canonicalValue": false,
                    "downStreamDefaultValue": true
                }
            ]
        }
    ],
    "localizations": [],
    "parents": [
    "rdm/lookupTypes/App-Account360IndustryType/SIC 1",
    "rdm/lookupTypes/App-Account360IndustryType/SIC 2",
    "rdm/lookupTypes/App-Account360IndustryType/SIC 3",
    "rdm/lookupTypes/App-Account360IndustryType/SIC 4",
    "rdm/lookupTypes/App-Account360IndustryType/SIC 5",
    "rdm/lookupTypes/App-Account360IndustryType/SIC 6",
    "rdm/lookupTypes/App-Account360IndustryType/US Standard Industry Code 1987 - 4 digit",
    "rdm/lookupTypes/App-Account360IndustryType/US SIC (1987)",
    "rdm/lookupTypes/App-Account360IndustryType/US Standard Industry Code 1972 - 4 digit",
    "rdm/lookupTypes/App-Account360IndustryType/US SIC (1972)",
    "rdm/lookupTypes/App-Account360IndustryType/US Standard Industry Code 1972 - 4 digit (European version)",
    "rdm/lookupTypes/App-Account360IndustryType/US Standard Industry Code 1987 - 3 digit",
    "rdm/lookupTypes/App-Account360IndustryType/US SIC (1987) - 3 digit",
    "rdm/lookupTypes/App-Account360IndustryType/US Standard Industry Code 1987 - 2 digit"
	],
    "startDate": 0,
    "endDate": 0
  },
  {
    "tenantId": "{{rdmTenant}}",
    "type": "rdm/lookupTypes/App-Account360IndustryCode",
    "code": "96610404",
    "enabled": true,
    "sourceMappings": [
        {
            "source": "Reltio",
            "values": [
                {
                    "code": "96610404",
                    "value": "Space research and technology, Local government",
                    "enabled": true,
                    "canonicalValue": true,
                    "downStreamDefaultValue": true
                }
            ]
        },
        {
            "source": "ReltioRDM",
            "values": [
                {
                    "code": "96610404",
                    "value": "Space research and technology, Local government",
                    "enabled": true,
                    "canonicalValue": false,
                    "downStreamDefaultValue": true
                }
            ]
        }
    ],
    "localizations": [],
    "parents": [
    "rdm/lookupTypes/App-Account360IndustryType/SIC 1",
    "rdm/lookupTypes/App-Account360IndustryType/SIC 2",
    "rdm/lookupTypes/App-Account360IndustryType/SIC 3",
    "rdm/lookupTypes/App-Account360IndustryType/SIC 4",
    "rdm/lookupTypes/App-Account360IndustryType/SIC 5",
    "rdm/lookupTypes/App-Account360IndustryType/SIC 6",
    "rdm/lookupTypes/App-Account360IndustryType/US Standard Industry Code 1987 - 4 digit",
    "rdm/lookupTypes/App-Account360IndustryType/US SIC (1987)",
    "rdm/lookupTypes/App-Account360IndustryType/US Standard Industry Code 1972 - 4 digit",
    "rdm/lookupTypes/App-Account360IndustryType/US SIC (1972)",
    "rdm/lookupTypes/App-Account360IndustryType/US Standard Industry Code 1972 - 4 digit (European version)",
    "rdm/lookupTypes/App-Account360IndustryType/US Standard Industry Code 1987 - 3 digit",
    "rdm/lookupTypes/App-Account360IndustryType/US SIC (1987) - 3 digit",
    "rdm/lookupTypes/App-Account360IndustryType/US Standard Industry Code 1987 - 2 digit"
	],
    "startDate": 0,
    "endDate": 0
  },
  {
    "tenantId": "{{rdmTenant}}",
    "type": "rdm/lookupTypes/App-Account360IndustryCode",
    "code": "96619900",
    "enabled": true,
    "sourceMappings": [
        {
            "source": "Reltio",
            "values": [
                {
                    "code": "96619900",
                    "value": "Space research and technology, nec",
                    "enabled": true,
                    "canonicalValue": true,
                    "downStreamDefaultValue": true
                }
            ]
        },
        {
            "source": "ReltioRDM",
            "values": [
                {
                    "code": "96619900",
                    "value": "Space research and technology, nec",
                    "enabled": true,
                    "canonicalValue": false,
                    "downStreamDefaultValue": true
                }
            ]
        }
    ],
    "localizations": [],
    "parents": [
    "rdm/lookupTypes/App-Account360IndustryType/SIC 1",
    "rdm/lookupTypes/App-Account360IndustryType/SIC 2",
    "rdm/lookupTypes/App-Account360IndustryType/SIC 3",
    "rdm/lookupTypes/App-Account360IndustryType/SIC 4",
    "rdm/lookupTypes/App-Account360IndustryType/SIC 5",
    "rdm/lookupTypes/App-Account360IndustryType/SIC 6",
    "rdm/lookupTypes/App-Account360IndustryType/US Standard Industry Code 1987 - 4 digit",
    "rdm/lookupTypes/App-Account360IndustryType/US SIC (1987)",
    "rdm/lookupTypes/App-Account360IndustryType/US Standard Industry Code 1972 - 4 digit",
    "rdm/lookupTypes/App-Account360IndustryType/US SIC (1972)",
    "rdm/lookupTypes/App-Account360IndustryType/US Standard Industry Code 1972 - 4 digit (European version)",
    "rdm/lookupTypes/App-Account360IndustryType/US Standard Industry Code 1987 - 3 digit",
    "rdm/lookupTypes/App-Account360IndustryType/US SIC (1987) - 3 digit",
    "rdm/lookupTypes/App-Account360IndustryType/US Standard Industry Code 1987 - 2 digit"
	],
    "startDate": 0,
    "endDate": 0
  },
  {
    "tenantId": "{{rdmTenant}}",
    "type": "rdm/lookupTypes/App-Account360IndustryCode",
    "code": "96619901",
    "enabled": true,
    "sourceMappings": [
        {
            "source": "Reltio",
            "values": [
                {
                    "code": "96619901",
                    "value": "Space flight operations, government",
                    "enabled": true,
                    "canonicalValue": true,
                    "downStreamDefaultValue": true
                }
            ]
        },
        {
            "source": "ReltioRDM",
            "values": [
                {
                    "code": "96619901",
                    "value": "Space flight operations, government",
                    "enabled": true,
                    "canonicalValue": false,
                    "downStreamDefaultValue": true
                }
            ]
        }
    ],
    "localizations": [],
    "parents": [
    "rdm/lookupTypes/App-Account360IndustryType/SIC 1",
    "rdm/lookupTypes/App-Account360IndustryType/SIC 2",
    "rdm/lookupTypes/App-Account360IndustryType/SIC 3",
    "rdm/lookupTypes/App-Account360IndustryType/SIC 4",
    "rdm/lookupTypes/App-Account360IndustryType/SIC 5",
    "rdm/lookupTypes/App-Account360IndustryType/SIC 6",
    "rdm/lookupTypes/App-Account360IndustryType/US Standard Industry Code 1987 - 4 digit",
    "rdm/lookupTypes/App-Account360IndustryType/US SIC (1987)",
    "rdm/lookupTypes/App-Account360IndustryType/US Standard Industry Code 1972 - 4 digit",
    "rdm/lookupTypes/App-Account360IndustryType/US SIC (1972)",
    "rdm/lookupTypes/App-Account360IndustryType/US Standard Industry Code 1972 - 4 digit (European version)",
    "rdm/lookupTypes/App-Account360IndustryType/US Standard Industry Code 1987 - 3 digit",
    "rdm/lookupTypes/App-Account360IndustryType/US SIC (1987) - 3 digit",
    "rdm/lookupTypes/App-Account360IndustryType/US Standard Industry Code 1987 - 2 digit"
	],
    "startDate": 0,
    "endDate": 0
  },
  {
    "tenantId": "{{rdmTenant}}",
    "type": "rdm/lookupTypes/App-Account360IndustryCode",
    "code": "96619902",
    "enabled": true,
    "sourceMappings": [
        {
            "source": "Reltio",
            "values": [
                {
                    "code": "96619902",
                    "value": "Space research and development, government",
                    "enabled": true,
                    "canonicalValue": true,
                    "downStreamDefaultValue": true
                }
            ]
        },
        {
            "source": "ReltioRDM",
            "values": [
                {
                    "code": "96619902",
                    "value": "Space research and development, government",
                    "enabled": true,
                    "canonicalValue": false,
                    "downStreamDefaultValue": true
                }
            ]
        }
    ],
    "localizations": [],
    "parents": [
    "rdm/lookupTypes/App-Account360IndustryType/SIC 1",
    "rdm/lookupTypes/App-Account360IndustryType/SIC 2",
    "rdm/lookupTypes/App-Account360IndustryType/SIC 3",
    "rdm/lookupTypes/App-Account360IndustryType/SIC 4",
    "rdm/lookupTypes/App-Account360IndustryType/SIC 5",
    "rdm/lookupTypes/App-Account360IndustryType/SIC 6",
    "rdm/lookupTypes/App-Account360IndustryType/US Standard Industry Code 1987 - 4 digit",
    "rdm/lookupTypes/App-Account360IndustryType/US SIC (1987)",
    "rdm/lookupTypes/App-Account360IndustryType/US Standard Industry Code 1972 - 4 digit",
    "rdm/lookupTypes/App-Account360IndustryType/US SIC (1972)",
    "rdm/lookupTypes/App-Account360IndustryType/US Standard Industry Code 1972 - 4 digit (European version)",
    "rdm/lookupTypes/App-Account360IndustryType/US Standard Industry Code 1987 - 3 digit",
    "rdm/lookupTypes/App-Account360IndustryType/US SIC (1987) - 3 digit",
    "rdm/lookupTypes/App-Account360IndustryType/US Standard Industry Code 1987 - 2 digit"
	],
    "startDate": 0,
    "endDate": 0
  },
  {
    "tenantId": "{{rdmTenant}}",
    "type": "rdm/lookupTypes/App-Account360IndustryCode",
    "code": "97110000",
    "enabled": true,
    "sourceMappings": [
        {
            "source": "Reltio",
            "values": [
                {
                    "code": "97110000",
                    "value": "National security",
                    "enabled": true,
                    "canonicalValue": true,
                    "downStreamDefaultValue": true
                }
            ]
        },
        {
            "source": "ReltioRDM",
            "values": [
                {
                    "code": "97110000",
                    "value": "National security",
                    "enabled": true,
                    "canonicalValue": false,
                    "downStreamDefaultValue": true
                }
            ]
        }
    ],
    "localizations": [],
    "parents": [
    "rdm/lookupTypes/App-Account360IndustryType/SIC 1",
    "rdm/lookupTypes/App-Account360IndustryType/SIC 2",
    "rdm/lookupTypes/App-Account360IndustryType/SIC 3",
    "rdm/lookupTypes/App-Account360IndustryType/SIC 4",
    "rdm/lookupTypes/App-Account360IndustryType/SIC 5",
    "rdm/lookupTypes/App-Account360IndustryType/SIC 6",
    "rdm/lookupTypes/App-Account360IndustryType/US Standard Industry Code 1987 - 4 digit",
    "rdm/lookupTypes/App-Account360IndustryType/US SIC (1987)",
    "rdm/lookupTypes/App-Account360IndustryType/US Standard Industry Code 1972 - 4 digit",
    "rdm/lookupTypes/App-Account360IndustryType/US SIC (1972)",
    "rdm/lookupTypes/App-Account360IndustryType/US Standard Industry Code 1972 - 4 digit (European version)",
    "rdm/lookupTypes/App-Account360IndustryType/US Standard Industry Code 1987 - 3 digit",
    "rdm/lookupTypes/App-Account360IndustryType/US SIC (1987) - 3 digit",
    "rdm/lookupTypes/App-Account360IndustryType/US Standard Industry Code 1987 - 2 digit"
	],
    "startDate": 0,
    "endDate": 0
  },
  {
    "tenantId": "{{rdmTenant}}",
    "type": "rdm/lookupTypes/App-Account360IndustryCode",
    "code": "97110400",
    "enabled": true,
    "sourceMappings": [
        {
            "source": "Reltio",
            "values": [
                {
                    "code": "97110400",
                    "value": "National security, level of government",
                    "enabled": true,
                    "canonicalValue": true,
                    "downStreamDefaultValue": true
                }
            ]
        },
        {
            "source": "ReltioRDM",
            "values": [
                {
                    "code": "97110400",
                    "value": "National security, level of government",
                    "enabled": true,
                    "canonicalValue": false,
                    "downStreamDefaultValue": true
                }
            ]
        }
    ],
    "localizations": [],
    "parents": [
    "rdm/lookupTypes/App-Account360IndustryType/SIC 1",
    "rdm/lookupTypes/App-Account360IndustryType/SIC 2",
    "rdm/lookupTypes/App-Account360IndustryType/SIC 3",
    "rdm/lookupTypes/App-Account360IndustryType/SIC 4",
    "rdm/lookupTypes/App-Account360IndustryType/SIC 5",
    "rdm/lookupTypes/App-Account360IndustryType/SIC 6",
    "rdm/lookupTypes/App-Account360IndustryType/US Standard Industry Code 1987 - 4 digit",
    "rdm/lookupTypes/App-Account360IndustryType/US SIC (1987)",
    "rdm/lookupTypes/App-Account360IndustryType/US Standard Industry Code 1972 - 4 digit",
    "rdm/lookupTypes/App-Account360IndustryType/US SIC (1972)",
    "rdm/lookupTypes/App-Account360IndustryType/US Standard Industry Code 1972 - 4 digit (European version)",
    "rdm/lookupTypes/App-Account360IndustryType/US Standard Industry Code 1987 - 3 digit",
    "rdm/lookupTypes/App-Account360IndustryType/US SIC (1987) - 3 digit",
    "rdm/lookupTypes/App-Account360IndustryType/US Standard Industry Code 1987 - 2 digit"
	],
    "startDate": 0,
    "endDate": 0
  },
  {
    "tenantId": "{{rdmTenant}}",
    "type": "rdm/lookupTypes/App-Account360IndustryCode",
    "code": "97110401",
    "enabled": true,
    "sourceMappings": [
        {
            "source": "Reltio",
            "values": [
                {
                    "code": "97110401",
                    "value": "National security, Federal government",
                    "enabled": true,
                    "canonicalValue": true,
                    "downStreamDefaultValue": true
                }
            ]
        },
        {
            "source": "ReltioRDM",
            "values": [
                {
                    "code": "97110401",
                    "value": "National security, Federal government",
                    "enabled": true,
                    "canonicalValue": false,
                    "downStreamDefaultValue": true
                }
            ]
        }
    ],
    "localizations": [],
    "parents": [
    "rdm/lookupTypes/App-Account360IndustryType/SIC 1",
    "rdm/lookupTypes/App-Account360IndustryType/SIC 2",
    "rdm/lookupTypes/App-Account360IndustryType/SIC 3",
    "rdm/lookupTypes/App-Account360IndustryType/SIC 4",
    "rdm/lookupTypes/App-Account360IndustryType/SIC 5",
    "rdm/lookupTypes/App-Account360IndustryType/SIC 6",
    "rdm/lookupTypes/App-Account360IndustryType/US Standard Industry Code 1987 - 4 digit",
    "rdm/lookupTypes/App-Account360IndustryType/US SIC (1987)",
    "rdm/lookupTypes/App-Account360IndustryType/US Standard Industry Code 1972 - 4 digit",
    "rdm/lookupTypes/App-Account360IndustryType/US SIC (1972)",
    "rdm/lookupTypes/App-Account360IndustryType/US Standard Industry Code 1972 - 4 digit (European version)",
    "rdm/lookupTypes/App-Account360IndustryType/US Standard Industry Code 1987 - 3 digit",
    "rdm/lookupTypes/App-Account360IndustryType/US SIC (1987) - 3 digit",
    "rdm/lookupTypes/App-Account360IndustryType/US Standard Industry Code 1987 - 2 digit"
	],
    "startDate": 0,
    "endDate": 0
  },
  {
    "tenantId": "{{rdmTenant}}",
    "type": "rdm/lookupTypes/App-Account360IndustryCode",
    "code": "97110402",
    "enabled": true,
    "sourceMappings": [
        {
            "source": "Reltio",
            "values": [
                {
                    "code": "97110402",
                    "value": "National security, State government",
                    "enabled": true,
                    "canonicalValue": true,
                    "downStreamDefaultValue": true
                }
            ]
        },
        {
            "source": "ReltioRDM",
            "values": [
                {
                    "code": "97110402",
                    "value": "National security, State government",
                    "enabled": true,
                    "canonicalValue": false,
                    "downStreamDefaultValue": true
                }
            ]
        }
    ],
    "localizations": [],
    "parents": [
    "rdm/lookupTypes/App-Account360IndustryType/SIC 1",
    "rdm/lookupTypes/App-Account360IndustryType/SIC 2",
    "rdm/lookupTypes/App-Account360IndustryType/SIC 3",
    "rdm/lookupTypes/App-Account360IndustryType/SIC 4",
    "rdm/lookupTypes/App-Account360IndustryType/SIC 5",
    "rdm/lookupTypes/App-Account360IndustryType/SIC 6",
    "rdm/lookupTypes/App-Account360IndustryType/US Standard Industry Code 1987 - 4 digit",
    "rdm/lookupTypes/App-Account360IndustryType/US SIC (1987)",
    "rdm/lookupTypes/App-Account360IndustryType/US Standard Industry Code 1972 - 4 digit",
    "rdm/lookupTypes/App-Account360IndustryType/US SIC (1972)",
    "rdm/lookupTypes/App-Account360IndustryType/US Standard Industry Code 1972 - 4 digit (European version)",
    "rdm/lookupTypes/App-Account360IndustryType/US Standard Industry Code 1987 - 3 digit",
    "rdm/lookupTypes/App-Account360IndustryType/US SIC (1987) - 3 digit",
    "rdm/lookupTypes/App-Account360IndustryType/US Standard Industry Code 1987 - 2 digit"
	],
    "startDate": 0,
    "endDate": 0
  },
  {
    "tenantId": "{{rdmTenant}}",
    "type": "rdm/lookupTypes/App-Account360IndustryCode",
    "code": "97110403",
    "enabled": true,
    "sourceMappings": [
        {
            "source": "Reltio",
            "values": [
                {
                    "code": "97110403",
                    "value": "National security, County government",
                    "enabled": true,
                    "canonicalValue": true,
                    "downStreamDefaultValue": true
                }
            ]
        },
        {
            "source": "ReltioRDM",
            "values": [
                {
                    "code": "97110403",
                    "value": "National security, County government",
                    "enabled": true,
                    "canonicalValue": false,
                    "downStreamDefaultValue": true
                }
            ]
        }
    ],
    "localizations": [],
    "parents": [
    "rdm/lookupTypes/App-Account360IndustryType/SIC 1",
    "rdm/lookupTypes/App-Account360IndustryType/SIC 2",
    "rdm/lookupTypes/App-Account360IndustryType/SIC 3",
    "rdm/lookupTypes/App-Account360IndustryType/SIC 4",
    "rdm/lookupTypes/App-Account360IndustryType/SIC 5",
    "rdm/lookupTypes/App-Account360IndustryType/SIC 6",
    "rdm/lookupTypes/App-Account360IndustryType/US Standard Industry Code 1987 - 4 digit",
    "rdm/lookupTypes/App-Account360IndustryType/US SIC (1987)",
    "rdm/lookupTypes/App-Account360IndustryType/US Standard Industry Code 1972 - 4 digit",
    "rdm/lookupTypes/App-Account360IndustryType/US SIC (1972)",
    "rdm/lookupTypes/App-Account360IndustryType/US Standard Industry Code 1972 - 4 digit (European version)",
    "rdm/lookupTypes/App-Account360IndustryType/US Standard Industry Code 1987 - 3 digit",
    "rdm/lookupTypes/App-Account360IndustryType/US SIC (1987) - 3 digit",
    "rdm/lookupTypes/App-Account360IndustryType/US Standard Industry Code 1987 - 2 digit"
	],
    "startDate": 0,
    "endDate": 0
  },
  {
    "tenantId": "{{rdmTenant}}",
    "type": "rdm/lookupTypes/App-Account360IndustryCode",
    "code": "97110404",
    "enabled": true,
    "sourceMappings": [
        {
            "source": "Reltio",
            "values": [
                {
                    "code": "97110404",
                    "value": "National security, Local government",
                    "enabled": true,
                    "canonicalValue": true,
                    "downStreamDefaultValue": true
                }
            ]
        },
        {
            "source": "ReltioRDM",
            "values": [
                {
                    "code": "97110404",
                    "value": "National security, Local government",
                    "enabled": true,
                    "canonicalValue": false,
                    "downStreamDefaultValue": true
                }
            ]
        }
    ],
    "localizations": [],
    "parents": [
    "rdm/lookupTypes/App-Account360IndustryType/SIC 1",
    "rdm/lookupTypes/App-Account360IndustryType/SIC 2",
    "rdm/lookupTypes/App-Account360IndustryType/SIC 3",
    "rdm/lookupTypes/App-Account360IndustryType/SIC 4",
    "rdm/lookupTypes/App-Account360IndustryType/SIC 5",
    "rdm/lookupTypes/App-Account360IndustryType/SIC 6",
    "rdm/lookupTypes/App-Account360IndustryType/US Standard Industry Code 1987 - 4 digit",
    "rdm/lookupTypes/App-Account360IndustryType/US SIC (1987)",
    "rdm/lookupTypes/App-Account360IndustryType/US Standard Industry Code 1972 - 4 digit",
    "rdm/lookupTypes/App-Account360IndustryType/US SIC (1972)",
    "rdm/lookupTypes/App-Account360IndustryType/US Standard Industry Code 1972 - 4 digit (European version)",
    "rdm/lookupTypes/App-Account360IndustryType/US Standard Industry Code 1987 - 3 digit",
    "rdm/lookupTypes/App-Account360IndustryType/US SIC (1987) - 3 digit",
    "rdm/lookupTypes/App-Account360IndustryType/US Standard Industry Code 1987 - 2 digit"
	],
    "startDate": 0,
    "endDate": 0
  },
  {
    "tenantId": "{{rdmTenant}}",
    "type": "rdm/lookupTypes/App-Account360IndustryCode",
    "code": "97119900",
    "enabled": true,
    "sourceMappings": [
        {
            "source": "Reltio",
            "values": [
                {
                    "code": "97119900",
                    "value": "National security, nec",
                    "enabled": true,
                    "canonicalValue": true,
                    "downStreamDefaultValue": true
                }
            ]
        },
        {
            "source": "ReltioRDM",
            "values": [
                {
                    "code": "97119900",
                    "value": "National security, nec",
                    "enabled": true,
                    "canonicalValue": false,
                    "downStreamDefaultValue": true
                }
            ]
        }
    ],
    "localizations": [],
    "parents": [
    "rdm/lookupTypes/App-Account360IndustryType/SIC 1",
    "rdm/lookupTypes/App-Account360IndustryType/SIC 2",
    "rdm/lookupTypes/App-Account360IndustryType/SIC 3",
    "rdm/lookupTypes/App-Account360IndustryType/SIC 4",
    "rdm/lookupTypes/App-Account360IndustryType/SIC 5",
    "rdm/lookupTypes/App-Account360IndustryType/SIC 6",
    "rdm/lookupTypes/App-Account360IndustryType/US Standard Industry Code 1987 - 4 digit",
    "rdm/lookupTypes/App-Account360IndustryType/US SIC (1987)",
    "rdm/lookupTypes/App-Account360IndustryType/US Standard Industry Code 1972 - 4 digit",
    "rdm/lookupTypes/App-Account360IndustryType/US SIC (1972)",
    "rdm/lookupTypes/App-Account360IndustryType/US Standard Industry Code 1972 - 4 digit (European version)",
    "rdm/lookupTypes/App-Account360IndustryType/US Standard Industry Code 1987 - 3 digit",
    "rdm/lookupTypes/App-Account360IndustryType/US SIC (1987) - 3 digit",
    "rdm/lookupTypes/App-Account360IndustryType/US Standard Industry Code 1987 - 2 digit"
	],
    "startDate": 0,
    "endDate": 0
  },
  {
    "tenantId": "{{rdmTenant}}",
    "type": "rdm/lookupTypes/App-Account360IndustryCode",
    "code": "97119901",
    "enabled": true,
    "sourceMappings": [
        {
            "source": "Reltio",
            "values": [
                {
                    "code": "97119901",
                    "value": "Air Force",
                    "enabled": true,
                    "canonicalValue": true,
                    "downStreamDefaultValue": true
                }
            ]
        },
        {
            "source": "ReltioRDM",
            "values": [
                {
                    "code": "97119901",
                    "value": "Air Force",
                    "enabled": true,
                    "canonicalValue": false,
                    "downStreamDefaultValue": true
                }
            ]
        }
    ],
    "localizations": [],
    "parents": [
    "rdm/lookupTypes/App-Account360IndustryType/SIC 1",
    "rdm/lookupTypes/App-Account360IndustryType/SIC 2",
    "rdm/lookupTypes/App-Account360IndustryType/SIC 3",
    "rdm/lookupTypes/App-Account360IndustryType/SIC 4",
    "rdm/lookupTypes/App-Account360IndustryType/SIC 5",
    "rdm/lookupTypes/App-Account360IndustryType/SIC 6",
    "rdm/lookupTypes/App-Account360IndustryType/US Standard Industry Code 1987 - 4 digit",
    "rdm/lookupTypes/App-Account360IndustryType/US SIC (1987)",
    "rdm/lookupTypes/App-Account360IndustryType/US Standard Industry Code 1972 - 4 digit",
    "rdm/lookupTypes/App-Account360IndustryType/US SIC (1972)",
    "rdm/lookupTypes/App-Account360IndustryType/US Standard Industry Code 1972 - 4 digit (European version)",
    "rdm/lookupTypes/App-Account360IndustryType/US Standard Industry Code 1987 - 3 digit",
    "rdm/lookupTypes/App-Account360IndustryType/US SIC (1987) - 3 digit",
    "rdm/lookupTypes/App-Account360IndustryType/US Standard Industry Code 1987 - 2 digit"
	],
    "startDate": 0,
    "endDate": 0
  },
  {
    "tenantId": "{{rdmTenant}}",
    "type": "rdm/lookupTypes/App-Account360IndustryCode",
    "code": "97119902",
    "enabled": true,
    "sourceMappings": [
        {
            "source": "Reltio",
            "values": [
                {
                    "code": "97119902",
                    "value": "Army",
                    "enabled": true,
                    "canonicalValue": true,
                    "downStreamDefaultValue": true
                }
            ]
        },
        {
            "source": "ReltioRDM",
            "values": [
                {
                    "code": "97119902",
                    "value": "Army",
                    "enabled": true,
                    "canonicalValue": false,
                    "downStreamDefaultValue": true
                }
            ]
        }
    ],
    "localizations": [],
    "parents": [
    "rdm/lookupTypes/App-Account360IndustryType/SIC 1",
    "rdm/lookupTypes/App-Account360IndustryType/SIC 2",
    "rdm/lookupTypes/App-Account360IndustryType/SIC 3",
    "rdm/lookupTypes/App-Account360IndustryType/SIC 4",
    "rdm/lookupTypes/App-Account360IndustryType/SIC 5",
    "rdm/lookupTypes/App-Account360IndustryType/SIC 6",
    "rdm/lookupTypes/App-Account360IndustryType/US Standard Industry Code 1987 - 4 digit",
    "rdm/lookupTypes/App-Account360IndustryType/US SIC (1987)",
    "rdm/lookupTypes/App-Account360IndustryType/US Standard Industry Code 1972 - 4 digit",
    "rdm/lookupTypes/App-Account360IndustryType/US SIC (1972)",
    "rdm/lookupTypes/App-Account360IndustryType/US Standard Industry Code 1972 - 4 digit (European version)",
    "rdm/lookupTypes/App-Account360IndustryType/US Standard Industry Code 1987 - 3 digit",
    "rdm/lookupTypes/App-Account360IndustryType/US SIC (1987) - 3 digit",
    "rdm/lookupTypes/App-Account360IndustryType/US Standard Industry Code 1987 - 2 digit"
	],
    "startDate": 0,
    "endDate": 0
  },
  {
    "tenantId": "{{rdmTenant}}",
    "type": "rdm/lookupTypes/App-Account360IndustryCode",
    "code": "97119903",
    "enabled": true,
    "sourceMappings": [
        {
            "source": "Reltio",
            "values": [
                {
                    "code": "97119903",
                    "value": "Civil Defense",
                    "enabled": true,
                    "canonicalValue": true,
                    "downStreamDefaultValue": true
                }
            ]
        },
        {
            "source": "ReltioRDM",
            "values": [
                {
                    "code": "97119903",
                    "value": "Civil Defense",
                    "enabled": true,
                    "canonicalValue": false,
                    "downStreamDefaultValue": true
                }
            ]
        }
    ],
    "localizations": [],
    "parents": [
    "rdm/lookupTypes/App-Account360IndustryType/SIC 1",
    "rdm/lookupTypes/App-Account360IndustryType/SIC 2",
    "rdm/lookupTypes/App-Account360IndustryType/SIC 3",
    "rdm/lookupTypes/App-Account360IndustryType/SIC 4",
    "rdm/lookupTypes/App-Account360IndustryType/SIC 5",
    "rdm/lookupTypes/App-Account360IndustryType/SIC 6",
    "rdm/lookupTypes/App-Account360IndustryType/US Standard Industry Code 1987 - 4 digit",
    "rdm/lookupTypes/App-Account360IndustryType/US SIC (1987)",
    "rdm/lookupTypes/App-Account360IndustryType/US Standard Industry Code 1972 - 4 digit",
    "rdm/lookupTypes/App-Account360IndustryType/US SIC (1972)",
    "rdm/lookupTypes/App-Account360IndustryType/US Standard Industry Code 1972 - 4 digit (European version)",
    "rdm/lookupTypes/App-Account360IndustryType/US Standard Industry Code 1987 - 3 digit",
    "rdm/lookupTypes/App-Account360IndustryType/US SIC (1987) - 3 digit",
    "rdm/lookupTypes/App-Account360IndustryType/US Standard Industry Code 1987 - 2 digit"
	],
    "startDate": 0,
    "endDate": 0
  },
  {
    "tenantId": "{{rdmTenant}}",
    "type": "rdm/lookupTypes/App-Account360IndustryCode",
    "code": "97119904",
    "enabled": true,
    "sourceMappings": [
        {
            "source": "Reltio",
            "values": [
                {
                    "code": "97119904",
                    "value": "Marine Corps",
                    "enabled": true,
                    "canonicalValue": true,
                    "downStreamDefaultValue": true
                }
            ]
        },
        {
            "source": "ReltioRDM",
            "values": [
                {
                    "code": "97119904",
                    "value": "Marine Corps",
                    "enabled": true,
                    "canonicalValue": false,
                    "downStreamDefaultValue": true
                }
            ]
        }
    ],
    "localizations": [],
    "parents": [
    "rdm/lookupTypes/App-Account360IndustryType/SIC 1",
    "rdm/lookupTypes/App-Account360IndustryType/SIC 2",
    "rdm/lookupTypes/App-Account360IndustryType/SIC 3",
    "rdm/lookupTypes/App-Account360IndustryType/SIC 4",
    "rdm/lookupTypes/App-Account360IndustryType/SIC 5",
    "rdm/lookupTypes/App-Account360IndustryType/SIC 6",
    "rdm/lookupTypes/App-Account360IndustryType/US Standard Industry Code 1987 - 4 digit",
    "rdm/lookupTypes/App-Account360IndustryType/US SIC (1987)",
    "rdm/lookupTypes/App-Account360IndustryType/US Standard Industry Code 1972 - 4 digit",
    "rdm/lookupTypes/App-Account360IndustryType/US SIC (1972)",
    "rdm/lookupTypes/App-Account360IndustryType/US Standard Industry Code 1972 - 4 digit (European version)",
    "rdm/lookupTypes/App-Account360IndustryType/US Standard Industry Code 1987 - 3 digit",
    "rdm/lookupTypes/App-Account360IndustryType/US SIC (1987) - 3 digit",
    "rdm/lookupTypes/App-Account360IndustryType/US Standard Industry Code 1987 - 2 digit"
	],
    "startDate": 0,
    "endDate": 0
  },
  {
    "tenantId": "{{rdmTenant}}",
    "type": "rdm/lookupTypes/App-Account360IndustryCode",
    "code": "97119905",
    "enabled": true,
    "sourceMappings": [
        {
            "source": "Reltio",
            "values": [
                {
                    "code": "97119905",
                    "value": "Military training schools",
                    "enabled": true,
                    "canonicalValue": true,
                    "downStreamDefaultValue": true
                }
            ]
        },
        {
            "source": "ReltioRDM",
            "values": [
                {
                    "code": "97119905",
                    "value": "Military training schools",
                    "enabled": true,
                    "canonicalValue": false,
                    "downStreamDefaultValue": true
                }
            ]
        }
    ],
    "localizations": [],
    "parents": [
    "rdm/lookupTypes/App-Account360IndustryType/SIC 1",
    "rdm/lookupTypes/App-Account360IndustryType/SIC 2",
    "rdm/lookupTypes/App-Account360IndustryType/SIC 3",
    "rdm/lookupTypes/App-Account360IndustryType/SIC 4",
    "rdm/lookupTypes/App-Account360IndustryType/SIC 5",
    "rdm/lookupTypes/App-Account360IndustryType/SIC 6",
    "rdm/lookupTypes/App-Account360IndustryType/US Standard Industry Code 1987 - 4 digit",
    "rdm/lookupTypes/App-Account360IndustryType/US SIC (1987)",
    "rdm/lookupTypes/App-Account360IndustryType/US Standard Industry Code 1972 - 4 digit",
    "rdm/lookupTypes/App-Account360IndustryType/US SIC (1972)",
    "rdm/lookupTypes/App-Account360IndustryType/US Standard Industry Code 1972 - 4 digit (European version)",
    "rdm/lookupTypes/App-Account360IndustryType/US Standard Industry Code 1987 - 3 digit",
    "rdm/lookupTypes/App-Account360IndustryType/US SIC (1987) - 3 digit",
    "rdm/lookupTypes/App-Account360IndustryType/US Standard Industry Code 1987 - 2 digit"
	],
    "startDate": 0,
    "endDate": 0
  },
  {
    "tenantId": "{{rdmTenant}}",
    "type": "rdm/lookupTypes/App-Account360IndustryCode",
    "code": "97119906",
    "enabled": true,
    "sourceMappings": [
        {
            "source": "Reltio",
            "values": [
                {
                    "code": "97119906",
                    "value": "National Guard",
                    "enabled": true,
                    "canonicalValue": true,
                    "downStreamDefaultValue": true
                }
            ]
        },
        {
            "source": "ReltioRDM",
            "values": [
                {
                    "code": "97119906",
                    "value": "National Guard",
                    "enabled": true,
                    "canonicalValue": false,
                    "downStreamDefaultValue": true
                }
            ]
        }
    ],
    "localizations": [],
    "parents": [
    "rdm/lookupTypes/App-Account360IndustryType/SIC 1",
    "rdm/lookupTypes/App-Account360IndustryType/SIC 2",
    "rdm/lookupTypes/App-Account360IndustryType/SIC 3",
    "rdm/lookupTypes/App-Account360IndustryType/SIC 4",
    "rdm/lookupTypes/App-Account360IndustryType/SIC 5",
    "rdm/lookupTypes/App-Account360IndustryType/SIC 6",
    "rdm/lookupTypes/App-Account360IndustryType/US Standard Industry Code 1987 - 4 digit",
    "rdm/lookupTypes/App-Account360IndustryType/US SIC (1987)",
    "rdm/lookupTypes/App-Account360IndustryType/US Standard Industry Code 1972 - 4 digit",
    "rdm/lookupTypes/App-Account360IndustryType/US SIC (1972)",
    "rdm/lookupTypes/App-Account360IndustryType/US Standard Industry Code 1972 - 4 digit (European version)",
    "rdm/lookupTypes/App-Account360IndustryType/US Standard Industry Code 1987 - 3 digit",
    "rdm/lookupTypes/App-Account360IndustryType/US SIC (1987) - 3 digit",
    "rdm/lookupTypes/App-Account360IndustryType/US Standard Industry Code 1987 - 2 digit"
	],
    "startDate": 0,
    "endDate": 0
  },
  {
    "tenantId": "{{rdmTenant}}",
    "type": "rdm/lookupTypes/App-Account360IndustryCode",
    "code": "97119907",
    "enabled": true,
    "sourceMappings": [
        {
            "source": "Reltio",
            "values": [
                {
                    "code": "97119907",
                    "value": "Navy",
                    "enabled": true,
                    "canonicalValue": true,
                    "downStreamDefaultValue": true
                }
            ]
        },
        {
            "source": "ReltioRDM",
            "values": [
                {
                    "code": "97119907",
                    "value": "Navy",
                    "enabled": true,
                    "canonicalValue": false,
                    "downStreamDefaultValue": true
                }
            ]
        }
    ],
    "localizations": [],
    "parents": [
    "rdm/lookupTypes/App-Account360IndustryType/SIC 1",
    "rdm/lookupTypes/App-Account360IndustryType/SIC 2",
    "rdm/lookupTypes/App-Account360IndustryType/SIC 3",
    "rdm/lookupTypes/App-Account360IndustryType/SIC 4",
    "rdm/lookupTypes/App-Account360IndustryType/SIC 5",
    "rdm/lookupTypes/App-Account360IndustryType/SIC 6",
    "rdm/lookupTypes/App-Account360IndustryType/US Standard Industry Code 1987 - 4 digit",
    "rdm/lookupTypes/App-Account360IndustryType/US SIC (1987)",
    "rdm/lookupTypes/App-Account360IndustryType/US Standard Industry Code 1972 - 4 digit",
    "rdm/lookupTypes/App-Account360IndustryType/US SIC (1972)",
    "rdm/lookupTypes/App-Account360IndustryType/US Standard Industry Code 1972 - 4 digit (European version)",
    "rdm/lookupTypes/App-Account360IndustryType/US Standard Industry Code 1987 - 3 digit",
    "rdm/lookupTypes/App-Account360IndustryType/US SIC (1987) - 3 digit",
    "rdm/lookupTypes/App-Account360IndustryType/US Standard Industry Code 1987 - 2 digit"
	],
    "startDate": 0,
    "endDate": 0
  },
  {
    "tenantId": "{{rdmTenant}}",
    "type": "rdm/lookupTypes/App-Account360IndustryCode",
    "code": "97210000",
    "enabled": true,
    "sourceMappings": [
        {
            "source": "Reltio",
            "values": [
                {
                    "code": "97210000",
                    "value": "International affairs",
                    "enabled": true,
                    "canonicalValue": true,
                    "downStreamDefaultValue": true
                }
            ]
        },
        {
            "source": "ReltioRDM",
            "values": [
                {
                    "code": "97210000",
                    "value": "International affairs",
                    "enabled": true,
                    "canonicalValue": false,
                    "downStreamDefaultValue": true
                }
            ]
        }
    ],
    "localizations": [],
    "parents": [
    "rdm/lookupTypes/App-Account360IndustryType/SIC 1",
    "rdm/lookupTypes/App-Account360IndustryType/SIC 2",
    "rdm/lookupTypes/App-Account360IndustryType/SIC 3",
    "rdm/lookupTypes/App-Account360IndustryType/SIC 4",
    "rdm/lookupTypes/App-Account360IndustryType/SIC 5",
    "rdm/lookupTypes/App-Account360IndustryType/SIC 6",
    "rdm/lookupTypes/App-Account360IndustryType/US Standard Industry Code 1987 - 4 digit",
    "rdm/lookupTypes/App-Account360IndustryType/US SIC (1987)",
    "rdm/lookupTypes/App-Account360IndustryType/US Standard Industry Code 1972 - 4 digit",
    "rdm/lookupTypes/App-Account360IndustryType/US SIC (1972)",
    "rdm/lookupTypes/App-Account360IndustryType/US Standard Industry Code 1972 - 4 digit (European version)",
    "rdm/lookupTypes/App-Account360IndustryType/US Standard Industry Code 1987 - 3 digit",
    "rdm/lookupTypes/App-Account360IndustryType/US SIC (1987) - 3 digit",
    "rdm/lookupTypes/App-Account360IndustryType/US Standard Industry Code 1987 - 2 digit"
	],
    "startDate": 0,
    "endDate": 0
  },
  {
    "tenantId": "{{rdmTenant}}",
    "type": "rdm/lookupTypes/App-Account360IndustryCode",
    "code": "97210400",
    "enabled": true,
    "sourceMappings": [
        {
            "source": "Reltio",
            "values": [
                {
                    "code": "97210400",
                    "value": "International affairs, level of government",
                    "enabled": true,
                    "canonicalValue": true,
                    "downStreamDefaultValue": true
                }
            ]
        },
        {
            "source": "ReltioRDM",
            "values": [
                {
                    "code": "97210400",
                    "value": "International affairs, level of government",
                    "enabled": true,
                    "canonicalValue": false,
                    "downStreamDefaultValue": true
                }
            ]
        }
    ],
    "localizations": [],
    "parents": [
    "rdm/lookupTypes/App-Account360IndustryType/SIC 1",
    "rdm/lookupTypes/App-Account360IndustryType/SIC 2",
    "rdm/lookupTypes/App-Account360IndustryType/SIC 3",
    "rdm/lookupTypes/App-Account360IndustryType/SIC 4",
    "rdm/lookupTypes/App-Account360IndustryType/SIC 5",
    "rdm/lookupTypes/App-Account360IndustryType/SIC 6",
    "rdm/lookupTypes/App-Account360IndustryType/US Standard Industry Code 1987 - 4 digit",
    "rdm/lookupTypes/App-Account360IndustryType/US SIC (1987)",
    "rdm/lookupTypes/App-Account360IndustryType/US Standard Industry Code 1972 - 4 digit",
    "rdm/lookupTypes/App-Account360IndustryType/US SIC (1972)",
    "rdm/lookupTypes/App-Account360IndustryType/US Standard Industry Code 1972 - 4 digit (European version)",
    "rdm/lookupTypes/App-Account360IndustryType/US Standard Industry Code 1987 - 3 digit",
    "rdm/lookupTypes/App-Account360IndustryType/US SIC (1987) - 3 digit",
    "rdm/lookupTypes/App-Account360IndustryType/US Standard Industry Code 1987 - 2 digit"
	],
    "startDate": 0,
    "endDate": 0
  },
  {
    "tenantId": "{{rdmTenant}}",
    "type": "rdm/lookupTypes/App-Account360IndustryCode",
    "code": "97210401",
    "enabled": true,
    "sourceMappings": [
        {
            "source": "Reltio",
            "values": [
                {
                    "code": "97210401",
                    "value": "International affairs, Federal government",
                    "enabled": true,
                    "canonicalValue": true,
                    "downStreamDefaultValue": true
                }
            ]
        },
        {
            "source": "ReltioRDM",
            "values": [
                {
                    "code": "97210401",
                    "value": "International affairs, Federal government",
                    "enabled": true,
                    "canonicalValue": false,
                    "downStreamDefaultValue": true
                }
            ]
        }
    ],
    "localizations": [],
    "parents": [
    "rdm/lookupTypes/App-Account360IndustryType/SIC 1",
    "rdm/lookupTypes/App-Account360IndustryType/SIC 2",
    "rdm/lookupTypes/App-Account360IndustryType/SIC 3",
    "rdm/lookupTypes/App-Account360IndustryType/SIC 4",
    "rdm/lookupTypes/App-Account360IndustryType/SIC 5",
    "rdm/lookupTypes/App-Account360IndustryType/SIC 6",
    "rdm/lookupTypes/App-Account360IndustryType/US Standard Industry Code 1987 - 4 digit",
    "rdm/lookupTypes/App-Account360IndustryType/US SIC (1987)",
    "rdm/lookupTypes/App-Account360IndustryType/US Standard Industry Code 1972 - 4 digit",
    "rdm/lookupTypes/App-Account360IndustryType/US SIC (1972)",
    "rdm/lookupTypes/App-Account360IndustryType/US Standard Industry Code 1972 - 4 digit (European version)",
    "rdm/lookupTypes/App-Account360IndustryType/US Standard Industry Code 1987 - 3 digit",
    "rdm/lookupTypes/App-Account360IndustryType/US SIC (1987) - 3 digit",
    "rdm/lookupTypes/App-Account360IndustryType/US Standard Industry Code 1987 - 2 digit"
	],
    "startDate": 0,
    "endDate": 0
  },
  {
    "tenantId": "{{rdmTenant}}",
    "type": "rdm/lookupTypes/App-Account360IndustryCode",
    "code": "97210402",
    "enabled": true,
    "sourceMappings": [
        {
            "source": "Reltio",
            "values": [
                {
                    "code": "97210402",
                    "value": "International affairs, State government",
                    "enabled": true,
                    "canonicalValue": true,
                    "downStreamDefaultValue": true
                }
            ]
        },
        {
            "source": "ReltioRDM",
            "values": [
                {
                    "code": "97210402",
                    "value": "International affairs, State government",
                    "enabled": true,
                    "canonicalValue": false,
                    "downStreamDefaultValue": true
                }
            ]
        }
    ],
    "localizations": [],
    "parents": [
    "rdm/lookupTypes/App-Account360IndustryType/SIC 1",
    "rdm/lookupTypes/App-Account360IndustryType/SIC 2",
    "rdm/lookupTypes/App-Account360IndustryType/SIC 3",
    "rdm/lookupTypes/App-Account360IndustryType/SIC 4",
    "rdm/lookupTypes/App-Account360IndustryType/SIC 5",
    "rdm/lookupTypes/App-Account360IndustryType/SIC 6",
    "rdm/lookupTypes/App-Account360IndustryType/US Standard Industry Code 1987 - 4 digit",
    "rdm/lookupTypes/App-Account360IndustryType/US SIC (1987)",
    "rdm/lookupTypes/App-Account360IndustryType/US Standard Industry Code 1972 - 4 digit",
    "rdm/lookupTypes/App-Account360IndustryType/US SIC (1972)",
    "rdm/lookupTypes/App-Account360IndustryType/US Standard Industry Code 1972 - 4 digit (European version)",
    "rdm/lookupTypes/App-Account360IndustryType/US Standard Industry Code 1987 - 3 digit",
    "rdm/lookupTypes/App-Account360IndustryType/US SIC (1987) - 3 digit",
    "rdm/lookupTypes/App-Account360IndustryType/US Standard Industry Code 1987 - 2 digit"
	],
    "startDate": 0,
    "endDate": 0
  },
  {
    "tenantId": "{{rdmTenant}}",
    "type": "rdm/lookupTypes/App-Account360IndustryCode",
    "code": "97210403",
    "enabled": true,
    "sourceMappings": [
        {
            "source": "Reltio",
            "values": [
                {
                    "code": "97210403",
                    "value": "International affairs, County government",
                    "enabled": true,
                    "canonicalValue": true,
                    "downStreamDefaultValue": true
                }
            ]
        },
        {
            "source": "ReltioRDM",
            "values": [
                {
                    "code": "97210403",
                    "value": "International affairs, County government",
                    "enabled": true,
                    "canonicalValue": false,
                    "downStreamDefaultValue": true
                }
            ]
        }
    ],
    "localizations": [],
    "parents": [
    "rdm/lookupTypes/App-Account360IndustryType/SIC 1",
    "rdm/lookupTypes/App-Account360IndustryType/SIC 2",
    "rdm/lookupTypes/App-Account360IndustryType/SIC 3",
    "rdm/lookupTypes/App-Account360IndustryType/SIC 4",
    "rdm/lookupTypes/App-Account360IndustryType/SIC 5",
    "rdm/lookupTypes/App-Account360IndustryType/SIC 6",
    "rdm/lookupTypes/App-Account360IndustryType/US Standard Industry Code 1987 - 4 digit",
    "rdm/lookupTypes/App-Account360IndustryType/US SIC (1987)",
    "rdm/lookupTypes/App-Account360IndustryType/US Standard Industry Code 1972 - 4 digit",
    "rdm/lookupTypes/App-Account360IndustryType/US SIC (1972)",
    "rdm/lookupTypes/App-Account360IndustryType/US Standard Industry Code 1972 - 4 digit (European version)",
    "rdm/lookupTypes/App-Account360IndustryType/US Standard Industry Code 1987 - 3 digit",
    "rdm/lookupTypes/App-Account360IndustryType/US SIC (1987) - 3 digit",
    "rdm/lookupTypes/App-Account360IndustryType/US Standard Industry Code 1987 - 2 digit"
	],
    "startDate": 0,
    "endDate": 0
  },
  {
    "tenantId": "{{rdmTenant}}",
    "type": "rdm/lookupTypes/App-Account360IndustryCode",
    "code": "97210404",
    "enabled": true,
    "sourceMappings": [
        {
            "source": "Reltio",
            "values": [
                {
                    "code": "97210404",
                    "value": "International affairs, Local government",
                    "enabled": true,
                    "canonicalValue": true,
                    "downStreamDefaultValue": true
                }
            ]
        },
        {
            "source": "ReltioRDM",
            "values": [
                {
                    "code": "97210404",
                    "value": "International affairs, Local government",
                    "enabled": true,
                    "canonicalValue": false,
                    "downStreamDefaultValue": true
                }
            ]
        }
    ],
    "localizations": [],
    "parents": [
    "rdm/lookupTypes/App-Account360IndustryType/SIC 1",
    "rdm/lookupTypes/App-Account360IndustryType/SIC 2",
    "rdm/lookupTypes/App-Account360IndustryType/SIC 3",
    "rdm/lookupTypes/App-Account360IndustryType/SIC 4",
    "rdm/lookupTypes/App-Account360IndustryType/SIC 5",
    "rdm/lookupTypes/App-Account360IndustryType/SIC 6",
    "rdm/lookupTypes/App-Account360IndustryType/US Standard Industry Code 1987 - 4 digit",
    "rdm/lookupTypes/App-Account360IndustryType/US SIC (1987)",
    "rdm/lookupTypes/App-Account360IndustryType/US Standard Industry Code 1972 - 4 digit",
    "rdm/lookupTypes/App-Account360IndustryType/US SIC (1972)",
    "rdm/lookupTypes/App-Account360IndustryType/US Standard Industry Code 1972 - 4 digit (European version)",
    "rdm/lookupTypes/App-Account360IndustryType/US Standard Industry Code 1987 - 3 digit",
    "rdm/lookupTypes/App-Account360IndustryType/US SIC (1987) - 3 digit",
    "rdm/lookupTypes/App-Account360IndustryType/US Standard Industry Code 1987 - 2 digit"
	],
    "startDate": 0,
    "endDate": 0
  },
  {
    "tenantId": "{{rdmTenant}}",
    "type": "rdm/lookupTypes/App-Account360IndustryCode",
    "code": "97219900",
    "enabled": true,
    "sourceMappings": [
        {
            "source": "Reltio",
            "values": [
                {
                    "code": "97219900",
                    "value": "International affairs, nec",
                    "enabled": true,
                    "canonicalValue": true,
                    "downStreamDefaultValue": true
                }
            ]
        },
        {
            "source": "ReltioRDM",
            "values": [
                {
                    "code": "97219900",
                    "value": "International affairs, nec",
                    "enabled": true,
                    "canonicalValue": false,
                    "downStreamDefaultValue": true
                }
            ]
        }
    ],
    "localizations": [],
    "parents": [
    "rdm/lookupTypes/App-Account360IndustryType/SIC 1",
    "rdm/lookupTypes/App-Account360IndustryType/SIC 2",
    "rdm/lookupTypes/App-Account360IndustryType/SIC 3",
    "rdm/lookupTypes/App-Account360IndustryType/SIC 4",
    "rdm/lookupTypes/App-Account360IndustryType/SIC 5",
    "rdm/lookupTypes/App-Account360IndustryType/SIC 6",
    "rdm/lookupTypes/App-Account360IndustryType/US Standard Industry Code 1987 - 4 digit",
    "rdm/lookupTypes/App-Account360IndustryType/US SIC (1987)",
    "rdm/lookupTypes/App-Account360IndustryType/US Standard Industry Code 1972 - 4 digit",
    "rdm/lookupTypes/App-Account360IndustryType/US SIC (1972)",
    "rdm/lookupTypes/App-Account360IndustryType/US Standard Industry Code 1972 - 4 digit (European version)",
    "rdm/lookupTypes/App-Account360IndustryType/US Standard Industry Code 1987 - 3 digit",
    "rdm/lookupTypes/App-Account360IndustryType/US SIC (1987) - 3 digit",
    "rdm/lookupTypes/App-Account360IndustryType/US Standard Industry Code 1987 - 2 digit"
	],
    "startDate": 0,
    "endDate": 0
  },
  {
    "tenantId": "{{rdmTenant}}",
    "type": "rdm/lookupTypes/App-Account360IndustryCode",
    "code": "97219901",
    "enabled": true,
    "sourceMappings": [
        {
            "source": "Reltio",
            "values": [
                {
                    "code": "97219901",
                    "value": "Consulates",
                    "enabled": true,
                    "canonicalValue": true,
                    "downStreamDefaultValue": true
                }
            ]
        },
        {
            "source": "ReltioRDM",
            "values": [
                {
                    "code": "97219901",
                    "value": "Consulates",
                    "enabled": true,
                    "canonicalValue": false,
                    "downStreamDefaultValue": true
                }
            ]
        }
    ],
    "localizations": [],
    "parents": [
    "rdm/lookupTypes/App-Account360IndustryType/SIC 1",
    "rdm/lookupTypes/App-Account360IndustryType/SIC 2",
    "rdm/lookupTypes/App-Account360IndustryType/SIC 3",
    "rdm/lookupTypes/App-Account360IndustryType/SIC 4",
    "rdm/lookupTypes/App-Account360IndustryType/SIC 5",
    "rdm/lookupTypes/App-Account360IndustryType/SIC 6",
    "rdm/lookupTypes/App-Account360IndustryType/US Standard Industry Code 1987 - 4 digit",
    "rdm/lookupTypes/App-Account360IndustryType/US SIC (1987)",
    "rdm/lookupTypes/App-Account360IndustryType/US Standard Industry Code 1972 - 4 digit",
    "rdm/lookupTypes/App-Account360IndustryType/US SIC (1972)",
    "rdm/lookupTypes/App-Account360IndustryType/US Standard Industry Code 1972 - 4 digit (European version)",
    "rdm/lookupTypes/App-Account360IndustryType/US Standard Industry Code 1987 - 3 digit",
    "rdm/lookupTypes/App-Account360IndustryType/US SIC (1987) - 3 digit",
    "rdm/lookupTypes/App-Account360IndustryType/US Standard Industry Code 1987 - 2 digit"
	],
    "startDate": 0,
    "endDate": 0
  },
  {
    "tenantId": "{{rdmTenant}}",
    "type": "rdm/lookupTypes/App-Account360IndustryCode",
    "code": "97219902",
    "enabled": true,
    "sourceMappings": [
        {
            "source": "Reltio",
            "values": [
                {
                    "code": "97219902",
                    "value": "Diplomatic service, government",
                    "enabled": true,
                    "canonicalValue": true,
                    "downStreamDefaultValue": true
                }
            ]
        },
        {
            "source": "ReltioRDM",
            "values": [
                {
                    "code": "97219902",
                    "value": "Diplomatic service, government",
                    "enabled": true,
                    "canonicalValue": false,
                    "downStreamDefaultValue": true
                }
            ]
        }
    ],
    "localizations": [],
    "parents": [
    "rdm/lookupTypes/App-Account360IndustryType/SIC 1",
    "rdm/lookupTypes/App-Account360IndustryType/SIC 2",
    "rdm/lookupTypes/App-Account360IndustryType/SIC 3",
    "rdm/lookupTypes/App-Account360IndustryType/SIC 4",
    "rdm/lookupTypes/App-Account360IndustryType/SIC 5",
    "rdm/lookupTypes/App-Account360IndustryType/SIC 6",
    "rdm/lookupTypes/App-Account360IndustryType/US Standard Industry Code 1987 - 4 digit",
    "rdm/lookupTypes/App-Account360IndustryType/US SIC (1987)",
    "rdm/lookupTypes/App-Account360IndustryType/US Standard Industry Code 1972 - 4 digit",
    "rdm/lookupTypes/App-Account360IndustryType/US SIC (1972)",
    "rdm/lookupTypes/App-Account360IndustryType/US Standard Industry Code 1972 - 4 digit (European version)",
    "rdm/lookupTypes/App-Account360IndustryType/US Standard Industry Code 1987 - 3 digit",
    "rdm/lookupTypes/App-Account360IndustryType/US SIC (1987) - 3 digit",
    "rdm/lookupTypes/App-Account360IndustryType/US Standard Industry Code 1987 - 2 digit"
	],
    "startDate": 0,
    "endDate": 0
  },
  {
    "tenantId": "{{rdmTenant}}",
    "type": "rdm/lookupTypes/App-Account360IndustryCode",
    "code": "97219903",
    "enabled": true,
    "sourceMappings": [
        {
            "source": "Reltio",
            "values": [
                {
                    "code": "97219903",
                    "value": "Embassies",
                    "enabled": true,
                    "canonicalValue": true,
                    "downStreamDefaultValue": true
                }
            ]
        },
        {
            "source": "ReltioRDM",
            "values": [
                {
                    "code": "97219903",
                    "value": "Embassies",
                    "enabled": true,
                    "canonicalValue": false,
                    "downStreamDefaultValue": true
                }
            ]
        }
    ],
    "localizations": [],
    "parents": [
    "rdm/lookupTypes/App-Account360IndustryType/SIC 1",
    "rdm/lookupTypes/App-Account360IndustryType/SIC 2",
    "rdm/lookupTypes/App-Account360IndustryType/SIC 3",
    "rdm/lookupTypes/App-Account360IndustryType/SIC 4",
    "rdm/lookupTypes/App-Account360IndustryType/SIC 5",
    "rdm/lookupTypes/App-Account360IndustryType/SIC 6",
    "rdm/lookupTypes/App-Account360IndustryType/US Standard Industry Code 1987 - 4 digit",
    "rdm/lookupTypes/App-Account360IndustryType/US SIC (1987)",
    "rdm/lookupTypes/App-Account360IndustryType/US Standard Industry Code 1972 - 4 digit",
    "rdm/lookupTypes/App-Account360IndustryType/US SIC (1972)",
    "rdm/lookupTypes/App-Account360IndustryType/US Standard Industry Code 1972 - 4 digit (European version)",
    "rdm/lookupTypes/App-Account360IndustryType/US Standard Industry Code 1987 - 3 digit",
    "rdm/lookupTypes/App-Account360IndustryType/US SIC (1987) - 3 digit",
    "rdm/lookupTypes/App-Account360IndustryType/US Standard Industry Code 1987 - 2 digit"
	],
    "startDate": 0,
    "endDate": 0
  },
  {
    "tenantId": "{{rdmTenant}}",
    "type": "rdm/lookupTypes/App-Account360IndustryCode",
    "code": "97219904",
    "enabled": true,
    "sourceMappings": [
        {
            "source": "Reltio",
            "values": [
                {
                    "code": "97219904",
                    "value": "Foreign missions",
                    "enabled": true,
                    "canonicalValue": true,
                    "downStreamDefaultValue": true
                }
            ]
        },
        {
            "source": "ReltioRDM",
            "values": [
                {
                    "code": "97219904",
                    "value": "Foreign missions",
                    "enabled": true,
                    "canonicalValue": false,
                    "downStreamDefaultValue": true
                }
            ]
        }
    ],
    "localizations": [],
    "parents": [
    "rdm/lookupTypes/App-Account360IndustryType/SIC 1",
    "rdm/lookupTypes/App-Account360IndustryType/SIC 2",
    "rdm/lookupTypes/App-Account360IndustryType/SIC 3",
    "rdm/lookupTypes/App-Account360IndustryType/SIC 4",
    "rdm/lookupTypes/App-Account360IndustryType/SIC 5",
    "rdm/lookupTypes/App-Account360IndustryType/SIC 6",
    "rdm/lookupTypes/App-Account360IndustryType/US Standard Industry Code 1987 - 4 digit",
    "rdm/lookupTypes/App-Account360IndustryType/US SIC (1987)",
    "rdm/lookupTypes/App-Account360IndustryType/US Standard Industry Code 1972 - 4 digit",
    "rdm/lookupTypes/App-Account360IndustryType/US SIC (1972)",
    "rdm/lookupTypes/App-Account360IndustryType/US Standard Industry Code 1972 - 4 digit (European version)",
    "rdm/lookupTypes/App-Account360IndustryType/US Standard Industry Code 1987 - 3 digit",
    "rdm/lookupTypes/App-Account360IndustryType/US SIC (1987) - 3 digit",
    "rdm/lookupTypes/App-Account360IndustryType/US Standard Industry Code 1987 - 2 digit"
	],
    "startDate": 0,
    "endDate": 0
  },
  {
    "tenantId": "{{rdmTenant}}",
    "type": "rdm/lookupTypes/App-Account360IndustryCode",
    "code": "97219905",
    "enabled": true,
    "sourceMappings": [
        {
            "source": "Reltio",
            "values": [
                {
                    "code": "97219905",
                    "value": "Immigration services, government",
                    "enabled": true,
                    "canonicalValue": true,
                    "downStreamDefaultValue": true
                }
            ]
        },
        {
            "source": "ReltioRDM",
            "values": [
                {
                    "code": "97219905",
                    "value": "Immigration services, government",
                    "enabled": true,
                    "canonicalValue": false,
                    "downStreamDefaultValue": true
                }
            ]
        }
    ],
    "localizations": [],
    "parents": [
    "rdm/lookupTypes/App-Account360IndustryType/SIC 1",
    "rdm/lookupTypes/App-Account360IndustryType/SIC 2",
    "rdm/lookupTypes/App-Account360IndustryType/SIC 3",
    "rdm/lookupTypes/App-Account360IndustryType/SIC 4",
    "rdm/lookupTypes/App-Account360IndustryType/SIC 5",
    "rdm/lookupTypes/App-Account360IndustryType/SIC 6",
    "rdm/lookupTypes/App-Account360IndustryType/US Standard Industry Code 1987 - 4 digit",
    "rdm/lookupTypes/App-Account360IndustryType/US SIC (1987)",
    "rdm/lookupTypes/App-Account360IndustryType/US Standard Industry Code 1972 - 4 digit",
    "rdm/lookupTypes/App-Account360IndustryType/US SIC (1972)",
    "rdm/lookupTypes/App-Account360IndustryType/US Standard Industry Code 1972 - 4 digit (European version)",
    "rdm/lookupTypes/App-Account360IndustryType/US Standard Industry Code 1987 - 3 digit",
    "rdm/lookupTypes/App-Account360IndustryType/US SIC (1987) - 3 digit",
    "rdm/lookupTypes/App-Account360IndustryType/US Standard Industry Code 1987 - 2 digit"
	],
    "startDate": 0,
    "endDate": 0
  },
  {
    "tenantId": "{{rdmTenant}}",
    "type": "rdm/lookupTypes/App-Account360IndustryCode",
    "code": "97219906",
    "enabled": true,
    "sourceMappings": [
        {
            "source": "Reltio",
            "values": [
                {
                    "code": "97219906",
                    "value": "Peace Corps",
                    "enabled": true,
                    "canonicalValue": true,
                    "downStreamDefaultValue": true
                }
            ]
        },
        {
            "source": "ReltioRDM",
            "values": [
                {
                    "code": "97219906",
                    "value": "Peace Corps",
                    "enabled": true,
                    "canonicalValue": false,
                    "downStreamDefaultValue": true
                }
            ]
        }
    ],
    "localizations": [],
    "parents": [
    "rdm/lookupTypes/App-Account360IndustryType/SIC 1",
    "rdm/lookupTypes/App-Account360IndustryType/SIC 2",
    "rdm/lookupTypes/App-Account360IndustryType/SIC 3",
    "rdm/lookupTypes/App-Account360IndustryType/SIC 4",
    "rdm/lookupTypes/App-Account360IndustryType/SIC 5",
    "rdm/lookupTypes/App-Account360IndustryType/SIC 6",
    "rdm/lookupTypes/App-Account360IndustryType/US Standard Industry Code 1987 - 4 digit",
    "rdm/lookupTypes/App-Account360IndustryType/US SIC (1987)",
    "rdm/lookupTypes/App-Account360IndustryType/US Standard Industry Code 1972 - 4 digit",
    "rdm/lookupTypes/App-Account360IndustryType/US SIC (1972)",
    "rdm/lookupTypes/App-Account360IndustryType/US Standard Industry Code 1972 - 4 digit (European version)",
    "rdm/lookupTypes/App-Account360IndustryType/US Standard Industry Code 1987 - 3 digit",
    "rdm/lookupTypes/App-Account360IndustryType/US SIC (1987) - 3 digit",
    "rdm/lookupTypes/App-Account360IndustryType/US Standard Industry Code 1987 - 2 digit"
	],
    "startDate": 0,
    "endDate": 0
  },
  {
    "tenantId": "{{rdmTenant}}",
    "type": "rdm/lookupTypes/App-Account360IndustryCode",
    "code": "97219907",
    "enabled": true,
    "sourceMappings": [
        {
            "source": "Reltio",
            "values": [
                {
                    "code": "97219907",
                    "value": "United Nations",
                    "enabled": true,
                    "canonicalValue": true,
                    "downStreamDefaultValue": true
                }
            ]
        },
        {
            "source": "ReltioRDM",
            "values": [
                {
                    "code": "97219907",
                    "value": "United Nations",
                    "enabled": true,
                    "canonicalValue": false,
                    "downStreamDefaultValue": true
                }
            ]
        }
    ],
    "localizations": [],
    "parents": [
    "rdm/lookupTypes/App-Account360IndustryType/SIC 1",
    "rdm/lookupTypes/App-Account360IndustryType/SIC 2",
    "rdm/lookupTypes/App-Account360IndustryType/SIC 3",
    "rdm/lookupTypes/App-Account360IndustryType/SIC 4",
    "rdm/lookupTypes/App-Account360IndustryType/SIC 5",
    "rdm/lookupTypes/App-Account360IndustryType/SIC 6",
    "rdm/lookupTypes/App-Account360IndustryType/US Standard Industry Code 1987 - 4 digit",
    "rdm/lookupTypes/App-Account360IndustryType/US SIC (1987)",
    "rdm/lookupTypes/App-Account360IndustryType/US Standard Industry Code 1972 - 4 digit",
    "rdm/lookupTypes/App-Account360IndustryType/US SIC (1972)",
    "rdm/lookupTypes/App-Account360IndustryType/US Standard Industry Code 1972 - 4 digit (European version)",
    "rdm/lookupTypes/App-Account360IndustryType/US Standard Industry Code 1987 - 3 digit",
    "rdm/lookupTypes/App-Account360IndustryType/US SIC (1987) - 3 digit",
    "rdm/lookupTypes/App-Account360IndustryType/US Standard Industry Code 1987 - 2 digit"
	],
    "startDate": 0,
    "endDate": 0
  },
  {
    "tenantId": "{{rdmTenant}}",
    "type": "rdm/lookupTypes/App-Account360IndustryCode",
    "code": "99990000",
    "enabled": true,
    "sourceMappings": [
        {
            "source": "Reltio",
            "values": [
                {
                    "code": "99990000",
                    "value": "Nonclassifiable establishments",
                    "enabled": true,
                    "canonicalValue": true,
                    "downStreamDefaultValue": true
                }
            ]
        },
        {
            "source": "ReltioRDM",
            "values": [
                {
                    "code": "99990000",
                    "value": "Nonclassifiable establishments",
                    "enabled": true,
                    "canonicalValue": false,
                    "downStreamDefaultValue": true
                }
            ]
        }
    ],
    "localizations": [],
    "parents": [
    "rdm/lookupTypes/App-Account360IndustryType/SIC 1",
    "rdm/lookupTypes/App-Account360IndustryType/SIC 2",
    "rdm/lookupTypes/App-Account360IndustryType/SIC 3",
    "rdm/lookupTypes/App-Account360IndustryType/SIC 4",
    "rdm/lookupTypes/App-Account360IndustryType/SIC 5",
    "rdm/lookupTypes/App-Account360IndustryType/SIC 6",
    "rdm/lookupTypes/App-Account360IndustryType/US Standard Industry Code 1987 - 4 digit",
    "rdm/lookupTypes/App-Account360IndustryType/US SIC (1987)",
    "rdm/lookupTypes/App-Account360IndustryType/US Standard Industry Code 1972 - 4 digit",
    "rdm/lookupTypes/App-Account360IndustryType/US SIC (1972)",
    "rdm/lookupTypes/App-Account360IndustryType/US Standard Industry Code 1972 - 4 digit (European version)",
    "rdm/lookupTypes/App-Account360IndustryType/US Standard Industry Code 1987 - 3 digit",
    "rdm/lookupTypes/App-Account360IndustryType/US SIC (1987) - 3 digit",
    "rdm/lookupTypes/App-Account360IndustryType/US Standard Industry Code 1987 - 2 digit"
	],
    "startDate": 0,
    "endDate": 0
  },
  {
    "tenantId": "{{rdmTenant}}",
    "type": "rdm/lookupTypes/App-Account360IndustryCode",
    "code": "99990001",
    "enabled": true,
    "sourceMappings": [
        {
            "source": "Reltio",
            "values": [
                {
                    "code": "99990001",
                    "value": "Lock box, for remittance only",
                    "enabled": true,
                    "canonicalValue": true,
                    "downStreamDefaultValue": true
                }
            ]
        },
        {
            "source": "ReltioRDM",
            "values": [
                {
                    "code": "99990001",
                    "value": "Lock box, for remittance only",
                    "enabled": true,
                    "canonicalValue": false,
                    "downStreamDefaultValue": true
                }
            ]
        }
    ],
    "localizations": [],
    "parents": [
    "rdm/lookupTypes/App-Account360IndustryType/SIC 1",
    "rdm/lookupTypes/App-Account360IndustryType/SIC 2",
    "rdm/lookupTypes/App-Account360IndustryType/SIC 3",
    "rdm/lookupTypes/App-Account360IndustryType/SIC 4",
    "rdm/lookupTypes/App-Account360IndustryType/SIC 5",
    "rdm/lookupTypes/App-Account360IndustryType/SIC 6",
    "rdm/lookupTypes/App-Account360IndustryType/US Standard Industry Code 1987 - 4 digit",
    "rdm/lookupTypes/App-Account360IndustryType/US SIC (1987)",
    "rdm/lookupTypes/App-Account360IndustryType/US Standard Industry Code 1972 - 4 digit",
    "rdm/lookupTypes/App-Account360IndustryType/US SIC (1972)",
    "rdm/lookupTypes/App-Account360IndustryType/US Standard Industry Code 1972 - 4 digit (European version)",
    "rdm/lookupTypes/App-Account360IndustryType/US Standard Industry Code 1987 - 3 digit",
    "rdm/lookupTypes/App-Account360IndustryType/US SIC (1987) - 3 digit",
    "rdm/lookupTypes/App-Account360IndustryType/US Standard Industry Code 1987 - 2 digit"
	],
    "startDate": 0,
    "endDate": 0
  },
  {
    "tenantId": "{{rdmTenant}}",
    "type": "rdm/lookupTypes/App-Account360IndustryCode",
    "code": "99992222",
    "enabled": true,
    "sourceMappings": [
        {
            "source": "Reltio",
            "values": [
                {
                    "code": "99992222",
                    "value": "Duns Support Record, nonclassifiable establishment",
                    "enabled": true,
                    "canonicalValue": true,
                    "downStreamDefaultValue": true
                }
            ]
        },
        {
            "source": "ReltioRDM",
            "values": [
                {
                    "code": "99992222",
                    "value": "Duns Support Record, nonclassifiable establishment",
                    "enabled": true,
                    "canonicalValue": false,
                    "downStreamDefaultValue": true
                }
            ]
        }
    ],
    "localizations": [],
    "parents": [
    "rdm/lookupTypes/App-Account360IndustryType/SIC 1",
    "rdm/lookupTypes/App-Account360IndustryType/SIC 2",
    "rdm/lookupTypes/App-Account360IndustryType/SIC 3",
    "rdm/lookupTypes/App-Account360IndustryType/SIC 4",
    "rdm/lookupTypes/App-Account360IndustryType/SIC 5",
    "rdm/lookupTypes/App-Account360IndustryType/SIC 6",
    "rdm/lookupTypes/App-Account360IndustryType/US Standard Industry Code 1987 - 4 digit",
    "rdm/lookupTypes/App-Account360IndustryType/US SIC (1987)",
    "rdm/lookupTypes/App-Account360IndustryType/US Standard Industry Code 1972 - 4 digit",
    "rdm/lookupTypes/App-Account360IndustryType/US SIC (1972)",
    "rdm/lookupTypes/App-Account360IndustryType/US Standard Industry Code 1972 - 4 digit (European version)",
    "rdm/lookupTypes/App-Account360IndustryType/US Standard Industry Code 1987 - 3 digit",
    "rdm/lookupTypes/App-Account360IndustryType/US SIC (1987) - 3 digit",
    "rdm/lookupTypes/App-Account360IndustryType/US Standard Industry Code 1987 - 2 digit"
	],
    "startDate": 0,
    "endDate": 0
  },
  {
    "tenantId": "{{rdmTenant}}",
    "type": "rdm/lookupTypes/App-Account360IndustryCode",
    "code": "99998888",
    "enabled": true,
    "sourceMappings": [
        {
            "source": "Reltio",
            "values": [
                {
                    "code": "99998888",
                    "value": "P.O. Box for general mailing purposes",
                    "enabled": true,
                    "canonicalValue": true,
                    "downStreamDefaultValue": true
                }
            ]
        },
        {
            "source": "ReltioRDM",
            "values": [
                {
                    "code": "99998888",
                    "value": "P.O. Box for general mailing purposes",
                    "enabled": true,
                    "canonicalValue": false,
                    "downStreamDefaultValue": true
                }
            ]
        }
    ],
    "localizations": [],
    "parents": [
    "rdm/lookupTypes/App-Account360IndustryType/SIC 1",
    "rdm/lookupTypes/App-Account360IndustryType/SIC 2",
    "rdm/lookupTypes/App-Account360IndustryType/SIC 3",
    "rdm/lookupTypes/App-Account360IndustryType/SIC 4",
    "rdm/lookupTypes/App-Account360IndustryType/SIC 5",
    "rdm/lookupTypes/App-Account360IndustryType/SIC 6",
    "rdm/lookupTypes/App-Account360IndustryType/US Standard Industry Code 1987 - 4 digit",
    "rdm/lookupTypes/App-Account360IndustryType/US SIC (1987)",
    "rdm/lookupTypes/App-Account360IndustryType/US Standard Industry Code 1972 - 4 digit",
    "rdm/lookupTypes/App-Account360IndustryType/US SIC (1972)",
    "rdm/lookupTypes/App-Account360IndustryType/US Standard Industry Code 1972 - 4 digit (European version)",
    "rdm/lookupTypes/App-Account360IndustryType/US Standard Industry Code 1987 - 3 digit",
    "rdm/lookupTypes/App-Account360IndustryType/US SIC (1987) - 3 digit",
    "rdm/lookupTypes/App-Account360IndustryType/US Standard Industry Code 1987 - 2 digit"
	],
    "startDate": 0,
    "endDate": 0
  }
]